{
	"process_id" : 15744,
	"version" : "2019.3.10f1",
	"app_path" : "C:/Program Files/Unity/Hub/Editor/2019.3.10f1/Editor/Unity.exe",
	"app_contents_path" : "C:/Program Files/Unity/Hub/Editor/2019.3.10f1/Editor/Data"
}